// Auto generated SWIG file for Python interface of DOLFIN
//
// Copyright (C) 2012 Kristian B. Oelgaard
//
// This file is part of DOLFIN.
//
// DOLFIN is free software: you can redistribute it and/or modify
// it under the terms of the GNU Lesser General Public License as published by
// the Free Software Foundation, either version 3 of the License, or
// (at your option) any later version.
//
// DOLFIN is distributed in the hope that it will be useful,
// but WITHOUT ANY WARRANTY; without even the implied warranty of
// MERCHANTABILITY or FITNESS FOR A PARTICULAR PURPOSE. See the
// GNU Lesser General Public License for more details.
//
// You should have received a copy of the GNU Lesser General Public License
// along with DOLFIN. If not, see <http://www.gnu.org/licenses/>.
//

// Autogenerated docstrings file, extracted from the DOLFIN source C++ files.

// Documentation extracted from: (module=fem, header=GenericDofMap.h)
%feature("docstring")  dolfin::GenericDofMap "
This class provides a generic interface for dof maps
";

%feature("docstring")  dolfin::GenericDofMap::GenericDofMap "
Constructor
";

%feature("docstring")  dolfin::GenericDofMap::is_view "
True if dof map is a view into another map (is a sub-dofmap)
";

%feature("docstring")  dolfin::GenericDofMap::global_dimension "
Return the dimension of the global finite element function space
";

%feature("docstring")  dolfin::GenericDofMap::cell_dimension "
Return the dimension of the local finite element function space
on a cell
";

%feature("docstring")  dolfin::GenericDofMap::max_cell_dimension "
Return the maximum dimension of the local finite element
function space
";

%feature("docstring")  dolfin::GenericDofMap::num_entity_dofs "
Return the number of dofs for a given entity dimension
";

%feature("docstring")  dolfin::GenericDofMap::num_facet_dofs "
Return number of facet dofs
";

%feature("docstring")  dolfin::GenericDofMap::restriction "
Restriction if any. If the dofmap is not restricted, a null
pointer is returned.
";

%feature("docstring")  dolfin::GenericDofMap::ownership_range "
Return the ownership range (dofs in this range are owned by
this process)
";

%feature("docstring")  dolfin::GenericDofMap::off_process_owner "
Return map from nonlocal-dofs (that appear in local dof map)
to owning process
";

%feature("docstring")  dolfin::GenericDofMap::cell_dofs "
Local-to-global mapping of dofs on a cell
";

%feature("docstring")  dolfin::GenericDofMap::tabulate_facet_dofs "
Tabulate local-local facet dofs
";

%feature("docstring")  dolfin::GenericDofMap::tabulate_entity_dofs "
Tabulate the local-to-local mapping of dofs on entity (dim, local_entity)
";

%feature("docstring")  dolfin::GenericDofMap::dof_to_vertex_map "
Return a map between vertices and dofs
";

%feature("docstring")  dolfin::GenericDofMap::vertex_to_dof_map "
Return a map between vertices and dofs
";

%feature("docstring")  dolfin::GenericDofMap::tabulate_coordinates "
Tabulate the coordinates of all dofs on a cell (UFC cell version)
";

%feature("docstring")  dolfin::GenericDofMap::tabulate_all_coordinates "
Tabulate the coordinates of all dofs owned by this process
";

%feature("docstring")  dolfin::GenericDofMap::copy "
Create a copy of the dof map
";

%feature("docstring")  dolfin::GenericDofMap::create "
Create a new dof map on new mesh
";

%feature("docstring")  dolfin::GenericDofMap::extract_sub_dofmap "
Extract sub dofmap component
";

%feature("docstring")  dolfin::GenericDofMap::collapse "
Create a \"collapsed\" a dofmap (collapses from a sub-dofmap view)
";

%feature("docstring")  dolfin::GenericDofMap::set "
Set dof entries in vector to a specified value. Parallel layout
of vector must be consistent with dof map range.
";

%feature("docstring")  dolfin::GenericDofMap::set_x "
Set dof entries in vector to the value*x[i], where x[i] is the
spatial coordinate of the dof. Parallel layout of vector must
be consistent with dof map range.
";

%feature("docstring")  dolfin::GenericDofMap::shared_dofs "
Return map from shared dofs to the processes (not including the current
process) that share it.
";

%feature("docstring")  dolfin::GenericDofMap::neighbours "
Return set of processes that share dofs with the this process
";

%feature("docstring")  dolfin::GenericDofMap::str "
Return informal string representation (pretty-print)
";

// Documentation extracted from: (module=fem, header=DofMap.h)
%feature("docstring")  dolfin::DofMap "
This class handles the mapping of degrees of freedom. It builds
a dof map based on a ufc::dofmap on a specific mesh. It will
reorder the dofs when running in parallel. Sub-dofmaps, both
views and copies, are supported.
";

%feature("docstring")  dolfin::DofMap::DofMap "
**Overloaded versions**

* DofMap\ (ufc_dofmap, mesh)

  Create dof map on mesh (mesh is not stored)
  
  *Arguments*
      ufc_dofmap (ufc::dofmap)
          The ufc::dofmap.
      mesh (:py:class:`Mesh`)
          The mesh.

* DofMap\ (ufc_dofmap, mesh, constrained_domain)

  Create a periodic dof map on mesh (mesh is not stored)
  
  *Arguments*
      ufc_dofmap (ufc::dofmap)
          The ufc::dofmap.
      mesh (:py:class:`Mesh`)
          The mesh.
      conatrained_boundary (:py:class:`SubDomain`)
          The subdomain marking the constrained (tied) boudaries.

* DofMap\ (ufc_dofmap, restriction)

  Create restricted dof map on mesh
  
  *Arguments*
      ufc_dofmap (ufc::dofmap)
          The ufc::dofmap.
      restriction (:py:class:`Restriction`)
          The restriction.
";

%feature("docstring")  dolfin::DofMap::is_view "
True iff dof map is a view into another map

*Returns*
    bool
        True if the dof map is a sub-dof map (a view into
        another map).
";

%feature("docstring")  dolfin::DofMap::is_restricted "
True if dof map is restricted

*Returns*
    bool
        True if dof map is restricted
";

%feature("docstring")  dolfin::DofMap::global_dimension "
Return the dimension of the global finite element function
space

*Returns*
    std::size_t
        The dimension of the global finite element function space.
";

%feature("docstring")  dolfin::DofMap::cell_dimension "
Return the dimension of the local finite element function
space on a cell

*Arguments*
    cell_index (std::size_t)
        Index of cell

*Returns*
    std::size_t
        Dimension of the local finite element function space.
";

%feature("docstring")  dolfin::DofMap::max_cell_dimension "
Return the maximum dimension of the local finite element
function space

*Returns*
    std::size_t
        Maximum dimension of the local finite element function
        space.
";

%feature("docstring")  dolfin::DofMap::num_entity_dofs "
Return the number of dofs for a given entity dimension

*Arguments*
    dim (std::size_t)
        Entity dimension

*Returns*
    std::size_t
        Number of dofs associated with given entity dimension
";

%feature("docstring")  dolfin::DofMap::geometric_dimension "
Return the geometric dimension of the coordinates this dof map
provides

*Returns*
    std::size_t
        The geometric dimension.
";

%feature("docstring")  dolfin::DofMap::num_facet_dofs "
Return number of facet dofs

*Returns*
    std::size_t
        The number of facet dofs.
";

%feature("docstring")  dolfin::DofMap::ownership_range "
Return the ownership range (dofs in this range are owned by
this process)

*Returns*
    std::pair<std::size_t, std::size_t>
        The ownership range.
";

%feature("docstring")  dolfin::DofMap::off_process_owner "
Return map from nonlocal dofs that appear in local dof map to
owning process

*Returns*
    boost::unordered_map<std::size_t, std::size_t>
        The map from non-local dofs.
";

%feature("docstring")  dolfin::DofMap::shared_dofs "
Return map from all shared dofs to the sharing processes (not
including the current process) that share it.

*Returns*
    boost::unordered_map<std::size_t, std::vector<unsigned int> >
        The map from dofs to list of processes
";

%feature("docstring")  dolfin::DofMap::neighbours "
Return set of processes that share dofs with this process

*Returns*
    std::set<std::size_t>
        The set of processes
";

%feature("docstring")  dolfin::DofMap::cell_dofs "
Local-to-global mapping of dofs on a cell

*Arguments*
    cell_index (std::size_t)
        The cell index.

*Returns*
    std::vector<dolfin::la_index>
        Local-to-global mapping of dofs.
";

%feature("docstring")  dolfin::DofMap::tabulate_facet_dofs "
Tabulate local-local facet dofs

*Arguments*
    dofs (std::size_t)
        Degrees of freedom.
    local_facet (std::size_t)
        The local facet.
";

%feature("docstring")  dolfin::DofMap::tabulate_entity_dofs "
Tabulate local-local mapping of dofs on entity (dim, local_entity)

*Arguments*
    dofs (std::size_t)
        Degrees of freedom.
    dim (std::size_t)
        The entity dimension
    local_entity (std::size_t)
        The local entity index
";

%feature("docstring")  dolfin::DofMap::tabulate_coordinates "
Tabulate the coordinates of all dofs on a cell (UFC cell
version)

*Arguments*
    coordinates (boost::multi_array<double, 2>)
        The coordinates of all dofs on a cell.
    ufc_cell (ufc::cell)
        The cell.
";

%feature("docstring")  dolfin::DofMap::tabulate_all_coordinates "
Tabulate the coordinates of all dofs on this process

*Arguments*
    mesh (:py:class:`Mesh`)
        The mesh.

*Returns*
    numpy.array(float)
        The dof coordinates (x0, y0, x1, y1, . . .)
";

%feature("docstring")  dolfin::DofMap::dof_to_vertex_map "
Return a map between vertices and dofs
(dof_ind = dof_to_vertex_map[vert_ind*dofs_per_vertex + local_dof],
where local_dof = 0, ..., dofs_per_vertex)
Ghost dofs are included - then dof_ind gets negative value
or value greater than process-local number of dofs.

*Arguments*
    mesh (:py:class:`Mesh`)
        The mesh to create the map between

*Returns*
    std::vector<dolfin::la_index>
        The dof to vertex map
";

%feature("docstring")  dolfin::DofMap::vertex_to_dof_map "
Return a map between vertices and dofs
(vert_ind*dofs_per_vertex + local_dof = vertex_to_dof_map[dof_ind],
where local_dof = 0, ..., dofs_per_vertex)
Ghost dofs are not included. This map is
an inversion of dof_to_vertex_map.

*Arguments*
    mesh (:py:class:`Mesh`)
        The mesh to create the map between

*Returns*
    std::vector<std::size_t>
        The vertex to dof map
";

%feature("docstring")  dolfin::DofMap::copy "
Create a copy of the dof map

*Returns*
    DofMap
        The Dofmap copy.
";

%feature("docstring")  dolfin::DofMap::create "
Create a copy of the dof map on a new mesh

*Arguments*
    new_mesh (:py:class:`Mesh`)
        The new mesh to create the dof map on.

*Returns*
    DofMap
        The new Dofmap copy.
";

%feature("docstring")  dolfin::DofMap::extract_sub_dofmap "
Extract subdofmap component

*Arguments*
    component (std::vector<std::size_t>)
        The component.
    mesh (:py:class:`Mesh`)
        The mesh.

*Returns*
    DofMap
        The subdofmap component.
";

%feature("docstring")  dolfin::DofMap::collapse "
Create a \"collapsed\" dofmap (collapses a sub-dofmap)

*Arguments*
    collapsed_map (boost::unordered_map<std::size_t, std::size_t>)
        The \"collapsed\" map.
    mesh (:py:class:`Mesh`)
        The mesh.

*Returns*
    DofMap
        The collapsed dofmap.
";

%feature("docstring")  dolfin::DofMap::set "
Set dof entries in vector to a specified value. Parallel layout
of vector must be consistent with dof map range.

*Arguments*
    vector (:py:class:`GenericVector`)
        The vector to set.
    value (float)
        The value to set.
";

%feature("docstring")  dolfin::DofMap::set_x "
Set dof entries in vector to the x[i] coordinate of the dof
spatial coordinate. Parallel layout of vector must be consistent
with dof map range.

*Arguments*
    vector (:py:class:`GenericVector`)
        The vector to set.
    value (float)
        The value to multiply to coordinate by.
    component (std::size_t)
        The coordinate index.
    mesh (:py:class:`Mesh`)
        The mesh.
";

%feature("docstring")  dolfin::DofMap::data "
Return the underlying dof map data. Intended for internal library
use only.

*Returns*
    std::vector<std::vector<dolfin::la_index> >
        The local-to-global map for each cell.
";

%feature("docstring")  dolfin::DofMap::str "
Return informal string representation (pretty-print)

*Arguments*
    verbose (bool)
        Flag to turn on additional output.

*Returns*
    str
        An informal representation of the function space.
";

// Documentation extracted from: (module=fem, header=Equation.h)
%feature("docstring")  dolfin::Equation "
This class represents a variational equation lhs == rhs.
The equation can be either linear or nonlinear:

1. Linear (a == L), in which case a must be a bilinear form
   and L must be a linear form.

2. Nonlinear (F == 0), in which case F must be a linear form.
";

%feature("docstring")  dolfin::Equation::Equation "
**Overloaded versions**

* Equation\ (a, L)

  Create equation a == L

* Equation\ (F, rhs)

  Create equation F == 0
";

%feature("docstring")  dolfin::Equation::is_linear "
Check whether equation is linear
";

%feature("docstring")  dolfin::Equation::lhs "
Return form for left-hand side
";

%feature("docstring")  dolfin::Equation::rhs "
Return form for right-hand side
";

%feature("docstring")  dolfin::Equation::rhs_int "
Return value for right-hand side
";

// Documentation extracted from: (module=fem, header=FiniteElement.h)
%feature("docstring")  dolfin::FiniteElement "
This is a wrapper for a UFC finite element (ufc::finite_element).
";

%feature("docstring")  dolfin::FiniteElement::FiniteElement "
Create finite element from UFC finite element (data may be shared)
";

%feature("docstring")  dolfin::FiniteElement::signature "
Return a string identifying the finite element
";

%feature("docstring")  dolfin::FiniteElement::cell_shape "
Return the cell shape
";

%feature("docstring")  dolfin::FiniteElement::space_dimension "
Return the dimension of the finite element function space
";

%feature("docstring")  dolfin::FiniteElement::value_rank "
Return the rank of the value space
";

%feature("docstring")  dolfin::FiniteElement::value_dimension "
Return the dimension of the value space for axis i
";

%feature("docstring")  dolfin::FiniteElement::evaluate_basis "
**Overloaded versions**

* evaluate_basis\ (i, values, x, vertex_coordinates, cell_orientation)

  Evaluate basis function i at given point in cell

* evaluate_basis\ (i, values, x, c)

  Evaluate basis function i at given point in cell
";

%feature("docstring")  dolfin::FiniteElement::evaluate_basis_all "
**Overloaded versions**

* evaluate_basis_all\ (values, x, vertex_coordinates, cell_orientation)

  Evaluate all basis functions at given point in cell

* evaluate_basis_all\ (values, x, vertex_coordinates, c)

  Evaluate all basis functions at given point in cell
";

%feature("docstring")  dolfin::FiniteElement::evaluate_basis_derivatives "
**Overloaded versions**

* evaluate_basis_derivatives\ (i, n, values, x, vertex_coordinates, cell_orientation)

  Evaluate order n derivatives of basis function i at given point in cell

* evaluate_basis_derivatives\ (i, n, values, x, c)

  Evaluate order n derivatives of basis function i at given point in cell
";

%feature("docstring")  dolfin::FiniteElement::evaluate_basis_derivatives_all "
**Overloaded versions**

* evaluate_basis_derivatives_all\ (n, values, x, vertex_coordinates, cell_orientation)

  Evaluate order n derivatives of all basis functions at given point in cell

* evaluate_basis_derivatives_all\ (n, values, x, c)

  Evaluate order n derivatives of all basis functions at given point in cell
";

%feature("docstring")  dolfin::FiniteElement::evaluate_dof "
**Overloaded versions**

* evaluate_dof\ (i, function, vertex_coordinates, cell_orientation, c)

  Evaluate linear functional for dof i on the function f

* evaluate_dof\ (i, function, c)

  Evaluate linear functional for dof i on the function f
";

%feature("docstring")  dolfin::FiniteElement::evaluate_dofs "
**Overloaded versions**

* evaluate_dofs\ (values, f, vertex_coordinates, cell_orientation, c)

  Evaluate linear functionals for all dofs on the function f

* evaluate_dofs\ (values, f, c)

  Evaluate linear functionals for all dofs on the function f
";

%feature("docstring")  dolfin::FiniteElement::interpolate_vertex_values "
Interpolate vertex values from dof values
";

%feature("docstring")  dolfin::FiniteElement::map_from_reference_cell "
Map coordinate xhat from reference cell to coordinate x in cell
";

%feature("docstring")  dolfin::FiniteElement::map_to_reference_cell "
Map from coordinate x in cell to coordinate xhat in reference cell
";

%feature("docstring")  dolfin::FiniteElement::num_sub_elements "
Return the number of sub elements (for a mixed element)
";

%feature("docstring")  dolfin::FiniteElement::hash "
Return simple hash of the signature string
";

%feature("docstring")  dolfin::FiniteElement::create_sub_element "
Create a new finite element for sub element i (for a mixed element)
";

%feature("docstring")  dolfin::FiniteElement::create "
Create a new class instance
";

%feature("docstring")  dolfin::FiniteElement::extract_sub_element "
Extract sub finite element for component
";

// Documentation extracted from: (module=fem, header=BasisFunction.h)
%feature("docstring")  dolfin::BasisFunction "
This class represents a finite element basis function. It can be
used for computation of basis function values and derivatives.

Evaluation of basis functions is also possible through the use
of the functions ``evaluate_basis`` and ``evaluate_basis_derivatives``
available in the :py:class:`FiniteElement` class. The BasisFunction class
relies on these functions for evaluation but also implements the
ufc::function interface which allows evaluate_dof to be
evaluated for a basis function (on a possibly different
element).
";

%feature("docstring")  dolfin::BasisFunction::BasisFunction "
Create basis function with given index on element on given cell

*Arguments*
    index (std::size_t)
        The index of the basis function.
    element (:py:class:`FiniteElement`)
        The element to create basis function on.
    cell (ufc::cell)
        The cell.
";

%feature("docstring")  dolfin::BasisFunction::eval "
Evaluate basis function at given point

*Arguments*
    values (float)
        The values of the function at the point.
    x (float)
        The coordinates of the point.
";

%feature("docstring")  dolfin::BasisFunction::eval_derivatives "
Evaluate all order n derivatives at given point

*Arguments*
    values (float)
        The values of derivatives at the point.
    x (float)
        The coordinates of the point.
    n (std::size_t)
        The order of derivation.
";

%feature("docstring")  dolfin::BasisFunction::evaluate "
Evaluate function at given point in cell

*Arguments*
    values (float)
        The values of the function at the point..
    coordinates (float)
        The coordinates of the point.
    cell (ufc::cell)
        The cell.
";

// Documentation extracted from: (module=fem, header=DirichletBC.h)
%feature("docstring")  dolfin::DirichletBC::DirichletBC "
**Overloaded versions**

* DirichletBC\ (V, g, sub_domain, method=\"topological\")

  Create boundary condition for subdomain
  
  *Arguments*
      V (:py:class:`FunctionSpace`)
          The function space.
      g (:py:class:`GenericFunction`)
          The value.
      sub_domain (:py:class:`SubDomain`)
          The subdomain.
      method (str)
          Optional argument: A string specifying
          the method to identify dofs.

* DirichletBC\ (V, g, sub_domain, method=\"topological\")

  Create boundary condition for subdomain
  
  *Arguments*
      V (:py:class:`FunctionSpace`)
          The function space
      g (:py:class:`GenericFunction`)
          The value
      sub_domain (:py:class:`SubDomain`)
          The subdomain
      method (str)
          Optional argument: A string specifying
          the method to identify dofs

* DirichletBC\ (V, g, sub_domains, sub_domain, method=\"topological\")

  Create boundary condition for subdomain specified by index
  
  *Arguments*
      V (:py:class:`FunctionSpace`)
          The function space.
      g (:py:class:`GenericFunction`)
          The value.
      sub_domains (:py:class:`MeshFunction`)
          Subdomain markers
      sub_domain (std::size_t)
          The subdomain index (number)
      method (str)
          Optional argument: A string specifying the
          method to identify dofs.

* DirichletBC\ (V, g, sub_domains, sub_domain, method=\"topological\")

  Create boundary condition for subdomain specified by index
  
  *Arguments*
      V (:py:class:`FunctionSpace`)
          The function space.
      g (:py:class:`GenericFunction`)
          The value.
      sub_domains (:py:class:`MeshFunction`)
          Subdomain markers
      sub_domain (std::size_t)
          The subdomain index (number)
      method (str)
          Optional argument: A string specifying the
          method to identify dofs.

* DirichletBC\ (V, g, sub_domain, method=\"topological\")

  Create boundary condition for boundary data included in the mesh
  
  *Arguments*
      V (:py:class:`FunctionSpace`)
          The function space.
      g (:py:class:`GenericFunction`)
          The value.
      sub_domain (std::size_t)
          The subdomain index (number)
      method (str)
          Optional argument: A string specifying the
          method to identify dofs.

* DirichletBC\ (V, g, sub_domain, method=\"topological\")

  Create boundary condition for boundary data included in the mesh
  
  *Arguments*
      V (:py:class:`FunctionSpace`)
          The function space.
      g (:py:class:`GenericFunction`)
          The value.
      sub_domain (std::size_t)
          The subdomain index (number)
      method (str)
          Optional argument: A string specifying the
          method to identify dofs.

* DirichletBC\ (V, g, markers, method=\"topological\")

  Create boundary condition for subdomain by boundary markers
  (cells, local facet numbers)
  
  *Arguments*
      V (:py:class:`FunctionSpace`)
          The function space.
      g (:py:class:`GenericFunction`)
          The value.
      markers (std::vector<std::pair<std::size_t, std::size_t> >)
          Subdomain markers (cells, local facet number)
      method (str)
          Optional argument: A string specifying the
          method to identify dofs.

* DirichletBC\ (bc)

  Copy constructor
  
  *Arguments*
      bc (:py:class:`DirichletBC`)
          The object to be copied.
";

%feature("docstring")  dolfin::DirichletBC::operator= "
Assignment operator

*Arguments*
    bc (:py:class:`DirichletBC`)
        Another DirichletBC object.
";

%feature("docstring")  dolfin::DirichletBC::apply "
**Overloaded versions**

* apply\ (A)

  Apply boundary condition to a matrix
  
  *Arguments*
      A (:py:class:`GenericMatrix`)
          The matrix to apply boundary condition to.

* apply\ (b)

  Apply boundary condition to a vector
  
  *Arguments*
      b (:py:class:`GenericVector`)
          The vector to apply boundary condition to.

* apply\ (A, b)

  Apply boundary condition to a linear system
  
  *Arguments*
      A (:py:class:`GenericMatrix`)
          The matrix to apply boundary condition to.
      b (:py:class:`GenericVector`)
          The vector to apply boundary condition to.

* apply\ (b, x)

  Apply boundary condition to vectors for a nonlinear problem
  
  *Arguments*
      b (:py:class:`GenericVector`)
          The vector to apply boundary conditions to.
      x (:py:class:`GenericVector`)
          Another vector (nonlinear problem).

* apply\ (A, b, x)

  Apply boundary condition to a linear system for a nonlinear problem
  
  *Arguments*
      A (:py:class:`GenericMatrix`)
          The matrix to apply boundary conditions to.
      b (:py:class:`GenericVector`)
          The vector to apply boundary conditions to.
      x (:py:class:`GenericVector`)
          Another vector (nonlinear problem).
";

%feature("docstring")  dolfin::DirichletBC::get_boundary_values "
Get Dirichlet dofs and values. If a method other than 'pointwise' is
used in parallel, the map may not be complete for local vertices since
a vertex can have a bc applied, but the partition might not have a
facet on the boundary. To ensure all local boundary dofs are marked,
it is necessary to call gather() on the returned boundary values.

*Arguments*
    boundary_values (boost::unordered_map<std::size_t, double>)
        Map from dof to boundary value.
    method (str)
        Optional argument: A string specifying which
        method to use.
";

%feature("docstring")  dolfin::DirichletBC::gather "
Get boundary values from neighbour processes. If a method other than
\"pointwise\" is used, this is necessary to ensure all boundary dofs are
marked on all processes.

*Arguments*
    boundary_values (boost::unordered_map<std::size_t, double>)
        Map from dof to boundary value.
";

%feature("docstring")  dolfin::DirichletBC::zero "
Make rows of matrix associated with boundary condition zero,
useful for non-diagonal matrices in a block matrix.

*Arguments*
    A (:py:class:`GenericMatrix`)
        The matrix
";

%feature("docstring")  dolfin::DirichletBC::zero_columns "
Make columns of matrix associated with boundary condition
zero, and update a (right-hand side) vector to reflect the
changes. Useful for non-diagonals.

*Arguments*
    A (:py:class:`GenericMatrix`)
        The matrix
    b (:py:class:`GenericVector`)
        The vector
    diag_val (float)
        This parameter would normally be -1, 0 or 1.
";

%feature("docstring")  dolfin::DirichletBC::markers "
Return boundary markers

*Returns*
    std::vector<std::pair<std::size_t, std::size_t> >
        Boundary markers (facets stored as pairs of cells and
        local facet numbers).
";

%feature("docstring")  dolfin::DirichletBC::function_space "
Return function space V

*Returns*
    _FunctionSPace_
        The function space to which boundary conditions are applied.
";

%feature("docstring")  dolfin::DirichletBC::value "
Return boundary value g

*Returns*
    :py:class:`GenericFunction`
        The boundary values.
";

%feature("docstring")  dolfin::DirichletBC::user_sub_domain "
Return shared pointer to subdomain

*Returns*
    :py:class:`SubDomain`
        Shared pointer to subdomain.
";

%feature("docstring")  dolfin::DirichletBC::is_compatible "
Check if given function is compatible with boundary condition
(checking only vertex values)

*Arguments*
    v (:py:class:`GenericFunction`)
        The function to check for compability
        with boundary condition.

*Returns*
    bool
        True if compatible.
";

%feature("docstring")  dolfin::DirichletBC::set_value "
**Overloaded versions**

* set_value\ (g)

  Set value g for boundary condition, domain remains unchanged
  
  *Arguments*
      g (:py:class:`GenericFunction`)
          The value.

* set_value\ (g)

  Set value g for boundary condition, domain remains unchanged
  
  *Arguments*
      g (:py:class:`GenericFunction`)
          The value.
";

%feature("docstring")  dolfin::DirichletBC::homogenize "
Set value to 0.0
";

%feature("docstring")  dolfin::DirichletBC::method "
Return method used for computing Dirichet dofs

*Returns*
    str
        Method used for computing Dirichet dofs (\"topological\",
        \"geometric\" or \"pointwise\").
";

%feature("docstring")  dolfin::DirichletBC::default_parameters "
Default parameter values
";

// Documentation extracted from: (module=fem, header=PointSource.h)
%feature("docstring")  dolfin::PointSource "
This class provides an easy mechanism for adding a point source
(Dirac delta function) to the right-hand side vector in a
variational problem. The associated function space must be
scalar in order for the inner product with the (scalar) Dirac
delta function to be well defined.
";

%feature("docstring")  dolfin::PointSource::PointSource "
**Overloaded versions**

* PointSource\ (V, p, magnitude=1.0)

  Create point source at given point of given magnitude

* PointSource\ (V, p, magnitude=1.0)

  Create point source at given point of given magnitude
";

%feature("docstring")  dolfin::PointSource::apply "
Apply (add) point source to right-hand side vector
";

// Documentation extracted from: (module=fem, header=assemble.h)
%feature("docstring")  dolfin::assemble "
**Overloaded versions**

* assemble\ (A, a)

  Assemble tensor

* assemble\ (a)

  Assemble scalar
";

%feature("docstring")  dolfin::assemble_system "
**Overloaded versions**

* assemble_system\ (A, b, a, L)

  Assemble system (A, b)

* assemble_system\ (A, b, a, L, bc)

  Assemble system (A, b) and apply Dirichlet boundary condition

* assemble_system\ (A, b, a, L, bcs)

  Assemble system (A, b) and apply Dirichlet boundary conditions

* assemble_system\ (A, b, a, L, bcs, x0)

  Assemble system (A, b) on sub domains and apply Dirichlet boundary
  conditions
";

// Documentation extracted from: (module=fem, header=LocalSolver.h)
%feature("docstring")  dolfin::LocalSolver::solve "
Solve local (cell-wise) problem and copy result into global
vector x.
";

// Documentation extracted from: (module=fem, header=solve.h)
%feature("docstring")  dolfin::solve "
**Overloaded versions**

* solve\ (equation, u, parameters=empty_parameters)

  Solve linear variational problem a(u, v) == L(v) or nonlinear
  variational problem F(u; v) = 0 without boundary conditions.
  
  Optional parameters can be passed to the LinearVariationalSolver
  or NonlinearVariationalSolver classes.

* solve\ (equation, u, bc, parameters=empty_parameters)

  Solve linear variational problem a(u, v) == L(v) or nonlinear
  variational problem F(u; v) = 0 with a single boundary condition.
  
  Optional parameters can be passed to the LinearVariationalSolver
  or NonlinearVariationalSolver classes.

* solve\ (equation, u, bcs, parameters=empty_parameters)

  Solve linear variational problem a(u, v) == L(v) or nonlinear
  variational problem F(u; v) = 0 with a list of boundary conditions.
  
  Optional parameters can be passed to the LinearVariationalSolver
  or NonlinearVariationalSolver classes.

* solve\ (equation, u, J, parameters=empty_parameters)

  Solve nonlinear variational problem F(u; v) == 0 without boundary
  conditions. The argument J should provide the Jacobian bilinear
  form J = dF/du.
  
  Optional parameters can be passed to the LinearVariationalSolver
  or NonlinearVariationalSolver classes.

* solve\ (equation, u, bc, J, parameters=empty_parameters)

  Solve nonlinear variational problem F(u; v) == 0 with a single
  boundary condition. The argument J should provide the Jacobian
  bilinear form J = dF/du.
  
  Optional parameters can be passed to the LinearVariationalSolver
  or NonlinearVariationalSolver classes.

* solve\ (equation, u, bcs, J, parameters=empty_parameters)

  Solve nonlinear variational problem F(u; v) == 0 with a list of
  boundary conditions. The argument J should provide the Jacobian
  bilinear form J = dF/du.
  
  Optional parameters can be passed to the LinearVariationalSolver
  or NonlinearVariationalSolver classes.
";

// Documentation extracted from: (module=fem, header=Form.h)
%feature("docstring")  dolfin::Form "
Base class for UFC code generated by FFC for DOLFIN with option -l.

A note on the order of trial and test spaces: FEniCS numbers
argument spaces starting with the leading dimension of the
corresponding tensor (matrix). In other words, the test space is
numbered 0 and the trial space is numbered 1. However, in order
to have a notation that agrees with most existing finite element
literature, in particular

    a = a(u, v)

the spaces are numbered from right to

    a: V_1 x V_0 -> R

.. note::

    Figure out how to write this in math mode without it getting
    messed up in the Python version.

This is reflected in the ordering of the spaces that should be
supplied to generated subclasses. In particular, when a bilinear
form is initialized, it should be initialized as

.. code-block:: c++

    a(V_1, V_0) = ...

where ``V_1`` is the trial space and ``V_0`` is the test space.
However, when a form is initialized by a list of argument spaces
(the variable ``function_spaces`` in the constructors below, the
list of spaces should start with space number 0 (the test space)
and then space number 1 (the trial space).
";

%feature("docstring")  dolfin::Form::Form "
**Overloaded versions**

* Form\ (rank, num_coefficients)

  Create form of given rank with given number of coefficients
  
  *Arguments*
      rank (std::size_t)
          The rank.
      num_coefficients (std::size_t)
          The number of coefficients.

* Form\ (ufc_form, function_spaces, coefficients)

  Create form (shared data)
  
  *Arguments*
      ufc_form (ufc::form)
          The UFC form.
      function_spaces (list of :py:class:`FunctionSpace`)
          Vector of function spaces.
      coefficients (list of :py:class:`GenericFunction`)
          Vector of coefficients.
";

%feature("docstring")  dolfin::Form::rank "
Return rank of form (bilinear form = 2, linear form = 1,
functional = 0, etc)

*Returns*
    std::size_t
        The rank of the form.
";

%feature("docstring")  dolfin::Form::num_coefficients "
Return number of coefficients

*Returns*
    std::size_t
        The number of coefficients.
";

%feature("docstring")  dolfin::Form::coloring "
Return coloring type for colored (multi-threaded) assembly of form
over a mesh entity of a given dimension

*Arguments*
    entity_dim (std::size_t)
        Dimension.

*Returns*
    std::vector<std::size_t>
        Coloring type.
";

%feature("docstring")  dolfin::Form::set_mesh "
Set mesh, necessary for functionals when there are no function spaces

*Arguments*
    mesh (:py:class:`Mesh`)
        The mesh.
";

%feature("docstring")  dolfin::Form::mesh "
Extract common mesh from form

*Returns*
    :py:class:`Mesh`
        The mesh.
";

%feature("docstring")  dolfin::Form::mesh_shared_ptr "
Return mesh shared pointer (if any)

*Returns*
    :py:class:`Mesh`
        The mesh shared pointer.
";

%feature("docstring")  dolfin::Form::function_space "
Return function space for given argument

*Arguments*
    i (std::size_t)
        Index

*Returns*
    :py:class:`FunctionSpace`
        Function space shared pointer.
";

%feature("docstring")  dolfin::Form::function_spaces "
Return function spaces for arguments

*Returns*
    list of :py:class:`FunctionSpace`
        Vector of function space shared pointers.
";

%feature("docstring")  dolfin::Form::set_coefficient "
**Overloaded versions**

* set_coefficient\ (i, coefficient)

  Set coefficient with given number (shared pointer version)
  
  *Arguments*
      i (std::size_t)
          The given number.
      coefficient (:py:class:`GenericFunction`)
          The coefficient.

* set_coefficient\ (name, coefficient)

  Set coefficient with given name (shared pointer version)
  
  *Arguments*
      name (str)
          The name.
      coefficient (:py:class:`GenericFunction`)
          The coefficient.
";

%feature("docstring")  dolfin::Form::set_coefficients "
Set all coefficients in given map, possibly a subset (shared
pointer version)

*Arguments*
    coefficients (:py:class:`GenericFunction`)
        The map of coefficients.
";

%feature("docstring")  dolfin::Form::coefficient "
**Overloaded versions**

* coefficient\ (i)

  Return coefficient with given number
  
  *Arguments*
      i (std::size_t)
          Index
  
  *Returns*
      :py:class:`GenericFunction`
          The coefficient.

* coefficient\ (name)

  Return coefficient with given name
  
  *Arguments*
      name (str)
          The name.
  
  *Returns*
      :py:class:`GenericFunction`
          The coefficient.
";

%feature("docstring")  dolfin::Form::coefficients "
Return all coefficients

*Returns*
    list of :py:class:`GenericFunction`
        All coefficients.
";

%feature("docstring")  dolfin::Form::coefficient_number "
Return the number of the coefficient with this name

*Arguments*
    name (str)
        The name.

*Returns*
    std::size_t
        The number of the coefficient with the given name.
";

%feature("docstring")  dolfin::Form::coefficient_name "
Return the name of the coefficient with this number

*Arguments*
    i (std::size_t)
        The number

*Returns*
    str
        The name of the coefficient with the given number.
";

%feature("docstring")  dolfin::Form::cell_domains "
Return cell domains (zero pointer if no domains have been
specified)

*Returns*
    :py:class:`MeshFunction`
        The cell domains.
";

%feature("docstring")  dolfin::Form::exterior_facet_domains "
Return exterior facet domains (zero pointer if no domains have
been specified)

*Returns*
    :py:class:`MeshFunction`
        The exterior facet domains.
";

%feature("docstring")  dolfin::Form::interior_facet_domains "
Return interior facet domains (zero pointer if no domains have
been specified)

*Returns*
    :py:class:`MeshFunction`
        The interior facet domains.
";

%feature("docstring")  dolfin::Form::set_cell_domains "
Set cell domains

*Arguments*
    cell_domains (:py:class:`MeshFunction`)
        The cell domains.
";

%feature("docstring")  dolfin::Form::set_exterior_facet_domains "
Set exterior facet domains

*Arguments*
    exterior_facet_domains (:py:class:`MeshFunction`)
        The exterior facet domains.
";

%feature("docstring")  dolfin::Form::set_interior_facet_domains "
Set interior facet domains

*Arguments*
    interior_facet_domains (:py:class:`MeshFunction`)
        The interior facet domains.
";

%feature("docstring")  dolfin::Form::ufc_form "
Return UFC form shared pointer

*Returns*
    ufc::form
        The UFC form.
";

%feature("docstring")  dolfin::Form::check "
Check function spaces and coefficients
";

%feature("docstring")  dolfin::Form::operator== "
**Overloaded versions**

* operator==\ (rhs)

  Comparison operator, returning equation lhs == rhs

* operator==\ (rhs)

  Comparison operator, returning equation lhs == 0
";

// Documentation extracted from: (module=fem, header=AssemblerBase.h)
%feature("docstring")  dolfin::AssemblerBase "
This class provides some common functions used in
assembler classes.
";

// Documentation extracted from: (module=fem, header=Assembler.h)
%feature("docstring")  dolfin::Assembler "
This class provides automated assembly of linear systems, or
more generally, assembly of a sparse tensor from a given
variational form.

Subdomains for cells and facets may be specified by assigning
subdomain indicators specified by :py:class:`MeshFunction` to the :py:class:`Form`
being assembled:

   .. code-block:: c++

       form.dx = cell_domains
       form.ds = exterior_facet_domains
       form.dS = interior_facet_domains
";

%feature("docstring")  dolfin::Assembler::assemble "
Assemble tensor from given form

*Arguments*
    A (:py:class:`GenericTensor`)
        The tensor to assemble.
    a (:py:class:`Form`)
        The form to assemble the tensor from.
";

%feature("docstring")  dolfin::Assembler::assemble_cells "
Assemble tensor from given form over cells. This function is
provided for users who wish to build a customized assembler.
";

%feature("docstring")  dolfin::Assembler::assemble_exterior_facets "
Assemble tensor from given form over exterior facets. This
function is provided for users who wish to build a customized
assembler.
";

%feature("docstring")  dolfin::Assembler::assemble_interior_facets "
Assemble tensor from given form over interior facets. This
function is provided for users who wish to build a customized
assembler.
";

%feature("docstring")  dolfin::Assembler::add_to_global_tensor "
Add cell tensor to global tensor. Hook to allow the SymmetricAssembler
to split the cell tensor into symmetric/antisymmetric parts.
";

// Documentation extracted from: (module=fem, header=SparsityPatternBuilder.h)
%feature("docstring")  dolfin::SparsityPatternBuilder "
This class provides functions to compute the sparsity pattern.
";

%feature("docstring")  dolfin::SparsityPatternBuilder::build "
Build sparsity pattern for assembly of given form
";

// Documentation extracted from: (module=fem, header=SystemAssembler.h)
%feature("docstring")  dolfin::SystemAssembler "
This class provides implements an assembler for systems of the
form Ax = b. It differs from the default DOLFIN assembler in that
it applies boundary conditions at the time of assembly, which
preserves any symmetries in A.
";

%feature("docstring")  dolfin::SystemAssembler::SystemAssembler "
**Overloaded versions**

* SystemAssembler\ (a, L)

  Constructor

* SystemAssembler\ (a, L, bc)

  Constructor

* SystemAssembler\ (a, L, bcs)

  Constructor

* SystemAssembler\ (a, L)

  Constructor

* SystemAssembler\ (a, L, bc)

  Constructor

* SystemAssembler\ (a, L, bcs)

  Constructor
";

%feature("docstring")  dolfin::SystemAssembler::assemble "
**Overloaded versions**

* assemble\ (A, b)

  Assemble system (A, b)

* assemble\ (A)

  Assemble matrix A

* assemble\ (b)

  Assemble vector b

* assemble\ (A, b, x0)

  Assemble system (A, b) (suitable for use inside a (quasi-)
  Newton solver)

* assemble\ (b, x0)

  Assemble vectpr b (suitable for use inside a (quasi-) Newton
  solver)
";

// Documentation extracted from: (module=fem, header=LinearVariationalProblem.h)
%feature("docstring")  dolfin::LinearVariationalProblem "
This class represents a linear variational problem:

Find u in V such that

    a(u, v) = L(v)  for all v in V^,

where V is the trial space and V^ is the test space.
";

%feature("docstring")  dolfin::LinearVariationalProblem::LinearVariationalProblem "
**Overloaded versions**

* LinearVariationalProblem\ (a, L, u)

  Create linear variational problem without boundary conditions

* LinearVariationalProblem\ (a, L, u, bc)

  Create linear variational problem with a single boundary condition

* LinearVariationalProblem\ (a, L, u, bcs)

  Create linear variational problem with a list of boundary conditions

* LinearVariationalProblem\ (a, L, u, bcs)

  Create linear variational problem with a list of boundary conditions
  (shared pointer version)
";

%feature("docstring")  dolfin::LinearVariationalProblem::bilinear_form "
Return bilinear form
";

%feature("docstring")  dolfin::LinearVariationalProblem::linear_form "
Return linear form
";

%feature("docstring")  dolfin::LinearVariationalProblem::solution "
**Overloaded versions**

* solution\ ()

  Return solution variable

* solution\ ()

  Return solution variable (const version)
";

%feature("docstring")  dolfin::LinearVariationalProblem::bcs "
Return boundary conditions
";

%feature("docstring")  dolfin::LinearVariationalProblem::trial_space "
Return trial space
";

%feature("docstring")  dolfin::LinearVariationalProblem::test_space "
Return test space
";

// Documentation extracted from: (module=fem, header=LinearVariationalSolver.h)
%feature("docstring")  dolfin::LinearVariationalSolver "
This class implements a solver for linear variational problems.
";

%feature("docstring")  dolfin::LinearVariationalSolver::LinearVariationalSolver "
**Overloaded versions**

* LinearVariationalSolver\ (problem)

  Create linear variational solver for given problem

* LinearVariationalSolver\ (problem)

  Create linear variational solver for given problem (shared pointer version)
";

%feature("docstring")  dolfin::LinearVariationalSolver::solve "
Solve variational problem
";

%feature("docstring")  dolfin::LinearVariationalSolver::default_parameters "
Default parameter values
";

// Documentation extracted from: (module=fem, header=NonlinearVariationalProblem.h)
%feature("docstring")  dolfin::NonlinearVariationalProblem "
This class represents a nonlinear variational problem:

Find u in V such that

    F(u; v) = 0  for all v in V^,

where V is the trial space and V^ is the test space.
";

%feature("docstring")  dolfin::NonlinearVariationalProblem::NonlinearVariationalProblem "
**Overloaded versions**

* NonlinearVariationalProblem\ (F, u)

  Create nonlinear variational problem without boundary conditions.
  The Jacobian form is not specified which requires the use of a
  nonlinear solver that does not rely on the Jacobian.

* NonlinearVariationalProblem\ (F, u, J)

  Create nonlinear variational problem without boundary conditions.
  The Jacobian form is specified which allows the use of a nonlinear
  solver that relies on the Jacobian (using Newton's method).

* NonlinearVariationalProblem\ (F, u, bc)

  Create nonlinear variational problem with a single boundary condition.
  The Jacobian form is not specified which requires the use of a
  nonlinear solver that does not rely on the Jacobian.

* NonlinearVariationalProblem\ (F, u, bc, J)

  Create nonlinear variational problem with a single boundary condition.
  The Jacobian form is specified which allows the use of a nonlinear
  solver that relies on the Jacobian (using Newton's method).

* NonlinearVariationalProblem\ (F, u, bcs)

  Create nonlinear variational problem with a list of boundary conditions.
  The Jacobian form is not specified which requires the use of a
  nonlinear solver that does not rely on the Jacobian.

* NonlinearVariationalProblem\ (F, u, bcs, J)

  Create nonlinear variational problem with a list of boundary conditions.
  The Jacobian form is specified which allows the use of a nonlinear
  solver that relies on the Jacobian (using Newton's method).

* NonlinearVariationalProblem\ (F, u, bcs)

  Create nonlinear variational problem, shared pointer version.
  The Jacobian form is not specified which requires the use of a
  nonlinear solver that does not rely on the Jacobian.

* NonlinearVariationalProblem\ (F, u, bcs, J)

  Create nonlinear variational problem, shared pointer version.
  The Jacobian form is specified which allows the use of a nonlinear
  solver that relies on the Jacobian (using Newton's method).
";

%feature("docstring")  dolfin::NonlinearVariationalProblem::residual_form "
Return residual form
";

%feature("docstring")  dolfin::NonlinearVariationalProblem::jacobian_form "
Return Jacobian form
";

%feature("docstring")  dolfin::NonlinearVariationalProblem::solution "
**Overloaded versions**

* solution\ ()

  Return solution variable

* solution\ ()

  Return solution variable (const version)
";

%feature("docstring")  dolfin::NonlinearVariationalProblem::bcs "
Return boundary conditions
";

%feature("docstring")  dolfin::NonlinearVariationalProblem::trial_space "
Return trial space
";

%feature("docstring")  dolfin::NonlinearVariationalProblem::test_space "
Return test space
";

%feature("docstring")  dolfin::NonlinearVariationalProblem::has_jacobian "
Check whether Jacobian has been defined
";

// Documentation extracted from: (module=fem, header=NonlinearVariationalSolver.h)
%feature("docstring")  dolfin::NonlinearVariationalSolver "
This class implements a solver for nonlinear variational problems.
";

%feature("docstring")  dolfin::NonlinearVariationalSolver::NonlinearVariationalSolver "
**Overloaded versions**

* NonlinearVariationalSolver\ (problem)

  Create nonlinear variational solver for given problem

* NonlinearVariationalSolver\ (problem)

  Create nonlinear variational solver for given problem (shared pointer version)
";

%feature("docstring")  dolfin::NonlinearVariationalSolver::solve "
Solve variational problem

*Returns*
    std::pair<std::size_t, bool>
        Pair of number of Newton iterations, and whether
        iteration converged)
";

%feature("docstring")  dolfin::NonlinearVariationalSolver::default_parameters "
Default parameter values
";

// Documentation extracted from: (module=fem, header=OpenMpAssembler.h)
%feature("docstring")  dolfin::OpenMpAssembler "
This class provides automated assembly of linear systems, or
more generally, assembly of a sparse tensor from a given
variational form.

The MeshFunction arguments can be used to specify assembly over
subdomains of the mesh cells, exterior facets or interior
facets. Either a null pointer or an empty MeshFunction may be
used to specify that the tensor should be assembled over the
entire set of cells or facets.
";

%feature("docstring")  dolfin::OpenMpAssembler::OpenMpAssembler "
Constructor
";

%feature("docstring")  dolfin::OpenMpAssembler::assemble "
Assemble tensor from given form
";

// Documentation extracted from: (module=fem, header=VariationalProblem.h)
%feature("docstring")  dolfin::VariationalProblem "
This class is deprecated and is only here to give an informative error
message to users about the new interface.
";

%feature("docstring")  dolfin::VariationalProblem::VariationalProblem "
**Overloaded versions**

* VariationalProblem\ (form_0, form_1)

  Deprecated

* VariationalProblem\ (form_0, form_1, bc)

  Deprecated

* VariationalProblem\ (form_0, form_1, bcs)

  Deprecated

* VariationalProblem\ (form_0, form_1, bcs)

  Deprecated
";

%feature("docstring")  dolfin::VariationalProblem::solve "
**Overloaded versions**

* solve\ (u)

  Deprecated

* solve\ (u0, u1)

  Deprecated

* solve\ (u0, u1, u2)

  Deprecated

* solve\ (u, tol, M)

  Deprecated

* solve\ (u, tol, M, ec)

  Deprecated
";

