/* -*- C -*- */
// Copyright (C) 2006-2009 Anders Logg
//
// This file is part of DOLFIN.
//
// DOLFIN is free software: you can redistribute it and/or modify
// it under the terms of the GNU Lesser General Public License as published by
// the Free Software Foundation, either version 3 of the License, or
// (at your option) any later version.
//
// DOLFIN is distributed in the hope that it will be useful,
// but WITHOUT ANY WARRANTY; without even the implied warranty of
// MERCHANTABILITY or FITNESS FOR A PARTICULAR PURPOSE. See the
// GNU Lesser General Public License for more details.
//
// You should have received a copy of the GNU Lesser General Public License
// along with DOLFIN. If not, see <http://www.gnu.org/licenses/>.
//
// Modified by Johan Jansson 2006-2007
// Modified by Ola Skavhaug 2006-2007
// Modified by Garth Wells 2007
// Modified by Johan Hake 2008-2011
//
// First added:  2006-09-20
// Last changed: 2011-11-13

//=============================================================================
// SWIG directives for the DOLFIN Mesh kernel module (pre)
//
// The directives in this file are applied _before_ the header files of the
// modules has been loaded.
//=============================================================================

//-----------------------------------------------------------------------------
// Return NumPy arrays for Mesh::cells() and Mesh::coordinates()
//-----------------------------------------------------------------------------
%extend dolfin::Mesh {
  PyObject* _coordinates() {
    return %make_numpy_array(2, double)(self->num_vertices(),
					self->geometry().dim(),
					&(self->coordinates())[0], true);
  }

  PyObject* _cells() {
    // FIXME: Works only for Mesh with Intervals, Triangles and Tetrahedrons
    return %make_numpy_array(2, uint)(self->num_cells(), self->topology().dim()+1,
				      &(self->cells()[0]), false);
  }

  PyObject* _cell_orientations() {
    return %make_numpy_array(1, int)(self->num_cells(), &(self->cell_orientations()[0]), true);
  }
}

//-----------------------------------------------------------------------------
// Return NumPy arrays for MeshFunction.values
//-----------------------------------------------------------------------------
%define ALL_VALUES(name, TYPE_NAME)
%extend name {
PyObject* _array()
{
  return %make_numpy_array(1, TYPE_NAME)(self->size(), self->values(), true);
}
}
%enddef

//-----------------------------------------------------------------------------
// Run the macros
//-----------------------------------------------------------------------------
ALL_VALUES(dolfin::MeshFunction<double>, double)
ALL_VALUES(dolfin::MeshFunction<int>, int)
ALL_VALUES(dolfin::MeshFunction<bool>, bool)
ALL_VALUES(dolfin::MeshFunction<std::size_t>, size_t)


//-----------------------------------------------------------------------------
// Ignore methods that is superseded by extended versions
//-----------------------------------------------------------------------------
%ignore dolfin::Mesh::cells;
%ignore dolfin::Mesh::coordinates;
%ignore dolfin::Mesh::cell_orientations;
%ignore dolfin::MeshFunction::values;

//-----------------------------------------------------------------------------
// Rename methods which get called by a re-implemented method from the
// Python layer
//-----------------------------------------------------------------------------
%rename (_mark) dolfin::SubDomain::mark;

//-----------------------------------------------------------------------------
// Misc ignores
//-----------------------------------------------------------------------------
%ignore dolfin::MeshEditor::open(Mesh&, CellType::Type, std::size_t, std::size_t);
%ignore dolfin::Point::operator=;
%ignore dolfin::Point::operator[];
%ignore dolfin::Mesh::operator=;
%ignore dolfin::MeshData::operator=;
%ignore dolfin::MeshFunction::operator=;
%ignore dolfin::MeshFunction::operator[];
%ignore dolfin::MeshValueCollection::operator=;
%ignore dolfin::MeshGeometry::operator=;
%ignore dolfin::MeshTopology::operator=;
%ignore dolfin::MeshValueCollection::operator=;
%ignore dolfin::MeshConnectivity::operator=;
%ignore dolfin::MeshConnectivity::set;
%ignore dolfin::MeshEntityIterator::operator->;
%ignore dolfin::MeshEntityIterator::operator[];
%ignore dolfin::MeshEntity::operator->;
%ignore dolfin::SubsetIterator::operator->;
%ignore dolfin::SubsetIterator::operator[];
%ignore dolfin::MeshDomains::operator=;

//-----------------------------------------------------------------------------
// Map increment, decrease and dereference operators for iterators
//-----------------------------------------------------------------------------
%rename(_increment) dolfin::MeshEntityIterator::operator++;
%rename(_decrease) dolfin::MeshEntityIterator::operator--;
%rename(_dereference) dolfin::MeshEntityIterator::operator*;
%rename(_increment) dolfin::SubsetIterator::operator++;
%rename(_dereference) dolfin::SubsetIterator::operator*;

//-----------------------------------------------------------------------------
// MeshEntityIteratorBase
//-----------------------------------------------------------------------------

// Ignore for all specializations done before importing the type
%ignore dolfin::MeshEntityIteratorBase::operator=;
%ignore dolfin::MeshEntityIteratorBase::operator->;
%ignore dolfin::MeshEntityIteratorBase::operator[];
%ignore dolfin::MeshEntityIteratorBase::operator[];
%ignore dolfin::MeshEntityIteratorBase::operator++;
%ignore dolfin::MeshEntityIteratorBase::operator--;
%ignore dolfin::MeshEntityIteratorBase::operator*;

#ifdef MESHMODULE // Conditional statements only for MESH module

// Forward import base template type
%import"dolfin/mesh/MeshEntityIteratorBase.h"

%define MESHENTITYITERATORBASE(ENTITY, name)
%template(name) dolfin::MeshEntityIteratorBase<dolfin::ENTITY>;

// Extend the interface (instead of renaming, doesn't seem to work)
%extend dolfin::MeshEntityIteratorBase<dolfin::ENTITY>
{
  dolfin::MeshEntityIteratorBase<dolfin::ENTITY>& _increment()
  {
    return self->operator++();
  }

  dolfin::MeshEntityIteratorBase<dolfin::ENTITY>& _decrease()
  {
    return self->operator--();
  }

  dolfin::ENTITY _dereference()
  {
    return *self->operator->();
  }

%pythoncode
%{
def __iter__(self):
    self.first = True
    return self

def next(self):
    self.first = self.first if hasattr(self,"first") else True
    if not self.first:
        self._increment()
    if self.end():
        self._decrease()
        raise StopIteration
    self.first = False
    return self._dereference()
%}

}

%enddef

MESHENTITYITERATORBASE(Cell, cells)
MESHENTITYITERATORBASE(Edge, edges)
MESHENTITYITERATORBASE(Face, faces)
MESHENTITYITERATORBASE(Facet, facets)
MESHENTITYITERATORBASE(Vertex, vertices)

//-----------------------------------------------------------------------------
// Rename the iterators to better match the Python syntax
//-----------------------------------------------------------------------------
%rename(entities) dolfin::MeshEntityIterator;

//-----------------------------------------------------------------------------
// Return NumPy arrays for MeshConnectivity() and MeshEntity.entities()
//-----------------------------------------------------------------------------
%ignore dolfin::MeshGeometry::x(std::size_t n, std::size_t i) const;
%ignore dolfin::MeshConnectivity::operator();
%ignore dolfin::MeshEntity::entities;

%extend dolfin::MeshConnectivity {
  PyObject* __call__()
  {
    return %make_numpy_array(1, uint)(self->size(), &(*self)()[0], false);
  }

  PyObject* __call__(std::size_t entity)
  {
    return %make_numpy_array(1, uint)(self->size(entity), (*self)(entity), false);
  }
}

%extend dolfin::MeshEntity {
%pythoncode
%{
    def entities(self, dim):
        """ Return number of incident mesh entities of given topological dimension"""
        return self.mesh().topology()(self.dim(), dim)(self.index())

    def __str__(self):
        """Pretty print of MeshEntity"""
        return self.str(0)
%}
}

#endif // End ifdef for MESHMODULE

%define FORWARD_DECLARE_MESHFUNCTIONS(TYPE, TYPENAME)
%shared_ptr(dolfin::Hierarchical<dolfin::MeshFunction<TYPE> >)
%template (HierarchicalMeshFunction ## TYPENAME) \
    dolfin::Hierarchical<dolfin::MeshFunction<TYPE> >;


// Forward declaration of template
%template() dolfin::MeshFunction<TYPE>;

// Shared_ptr declarations
%shared_ptr(dolfin::MeshFunction<TYPE>)
%shared_ptr(dolfin::CellFunction<TYPE>)
%shared_ptr(dolfin::EdgeFunction<TYPE>)
%shared_ptr(dolfin::FaceFunction<TYPE>)
%shared_ptr(dolfin::FacetFunction<TYPE>)
%shared_ptr(dolfin::VertexFunction<TYPE>)

// Include shared_ptr declaration of MeshValueCollection
%shared_ptr(dolfin::MeshValueCollection<TYPE>)
%enddef

FORWARD_DECLARE_MESHFUNCTIONS(unsigned int, UInt)
FORWARD_DECLARE_MESHFUNCTIONS(int, Int)
FORWARD_DECLARE_MESHFUNCTIONS(double, Double)
FORWARD_DECLARE_MESHFUNCTIONS(bool, Bool)
FORWARD_DECLARE_MESHFUNCTIONS(std::size_t, Sizet)

// Exclude from ifdef as it is used by other modules
%template (HierarchicalMesh) dolfin::Hierarchical<dolfin::Mesh>;

//-----------------------------------------------------------------------------
// Add director classes
//-----------------------------------------------------------------------------
%feature("director") dolfin::SubDomain;
